<?xml version="1.0" encoding="UTF-8" standalone="no"?>
<!-- Created with Inkscape (http://www.inkscape.org/) -->

<svg
   xmlns:ns0="http://www.iki.fi/pav/software/textext/"
   xmlns:dc="http://purl.org/dc/elements/1.1/"
   xmlns:cc="http://creativecommons.org/ns#"
   xmlns:rdf="http://www.w3.org/1999/02/22-rdf-syntax-ns#"
   xmlns:svg="http://www.w3.org/2000/svg"
   xmlns="http://www.w3.org/2000/svg"
   xmlns:xlink="http://www.w3.org/1999/xlink"
   xmlns:sodipodi="http://sodipodi.sourceforge.net/DTD/sodipodi-0.dtd"
   xmlns:inkscape="http://www.inkscape.org/namespaces/inkscape"
   width="1419.3826"
   height="676.59442"
   id="svg2"
   version="1.1"
   inkscape:version="0.48.2 r9819"
   sodipodi:docname="lpc-synthesis.svg"
   inkscape:export-filename="/home/boisgera/Bureau/boisgera/DISKS/VOYAGER/ENS/TRAITEMENT_DU_SIGNAL/2011/SLIDES/PYTHON/bitstream.png"
   inkscape:export-xdpi="300"
   inkscape:export-ydpi="300">
  <sodipodi:namedview
     id="base"
     pagecolor="#ffffff"
     bordercolor="#666666"
     borderopacity="1.0"
     inkscape:pageopacity="0.0"
     inkscape:pageshadow="2"
     inkscape:zoom="0.83083333"
     inkscape:cx="753.3125"
     inkscape:cy="336.40923"
     inkscape:document-units="px"
     inkscape:current-layer="layer1"
     showgrid="false"
     inkscape:window-width="1920"
     inkscape:window-height="1176"
     inkscape:window-x="0"
     inkscape:window-y="24"
     inkscape:window-maximized="1"
     borderlayer="true"
     fit-margin-top="0"
     fit-margin-left="0"
     fit-margin-right="0"
     fit-margin-bottom="0" />
  <defs
     id="defs4">
    <marker
       inkscape:stockid="Arrow2Mend"
       orient="auto"
       refY="0"
       refX="0"
       id="Arrow2Mend"
       style="overflow:visible">
      <path
         id="path5793"
         style="font-size:12px;fill-rule:evenodd;stroke-width:0.625;stroke-linejoin:round"
         d="M 8.7185878,4.0337352 -2.2072895,0.01601326 8.7185884,-4.0017078 c -1.7454984,2.3720609 -1.7354408,5.6174519 -6e-7,8.035443 z"
         transform="scale(-0.6,-0.6)"
         inkscape:connector-curvature="0" />
    </marker>
    <inkscape:perspective
       id="perspective10"
       inkscape:persp3d-origin="372.04724 : 350.78739 : 1"
       inkscape:vp_z="744.09448 : 526.18109 : 1"
       inkscape:vp_y="0 : 1000 : 0"
       inkscape:vp_x="0 : 526.18109 : 1"
       sodipodi:type="inkscape:persp3d" />
    <inkscape:perspective
       sodipodi:type="inkscape:persp3d"
       inkscape:vp_x="0 : 0.5 : 1"
       inkscape:vp_y="0 : 1000 : 0"
       inkscape:vp_z="1 : 0.5 : 1"
       inkscape:persp3d-origin="0.5 : 0.33333333 : 1"
       id="perspective2849" />
    <inkscape:perspective
       id="perspective3854"
       inkscape:persp3d-origin="0.5 : 0.33333333 : 1"
       inkscape:vp_z="1 : 0.5 : 1"
       inkscape:vp_y="0 : 1000 : 0"
       inkscape:vp_x="0 : 0.5 : 1"
       sodipodi:type="inkscape:persp3d" />
    <inkscape:perspective
       id="perspective3899"
       inkscape:persp3d-origin="0.5 : 0.33333333 : 1"
       inkscape:vp_z="1 : 0.5 : 1"
       inkscape:vp_y="0 : 1000 : 0"
       inkscape:vp_x="0 : 0.5 : 1"
       sodipodi:type="inkscape:persp3d" />
    <inkscape:perspective
       id="perspective3945"
       inkscape:persp3d-origin="0.5 : 0.33333333 : 1"
       inkscape:vp_z="1 : 0.5 : 1"
       inkscape:vp_y="0 : 1000 : 0"
       inkscape:vp_x="0 : 0.5 : 1"
       sodipodi:type="inkscape:persp3d" />
    <inkscape:perspective
       id="perspective3967"
       inkscape:persp3d-origin="0.5 : 0.33333333 : 1"
       inkscape:vp_z="1 : 0.5 : 1"
       inkscape:vp_y="0 : 1000 : 0"
       inkscape:vp_x="0 : 0.5 : 1"
       sodipodi:type="inkscape:persp3d" />
    <inkscape:perspective
       id="perspective4005"
       inkscape:persp3d-origin="0.5 : 0.33333333 : 1"
       inkscape:vp_z="1 : 0.5 : 1"
       inkscape:vp_y="0 : 1000 : 0"
       inkscape:vp_x="0 : 0.5 : 1"
       sodipodi:type="inkscape:persp3d" />
    <inkscape:perspective
       id="perspective4040"
       inkscape:persp3d-origin="0.5 : 0.33333333 : 1"
       inkscape:vp_z="1 : 0.5 : 1"
       inkscape:vp_y="0 : 1000 : 0"
       inkscape:vp_x="0 : 0.5 : 1"
       sodipodi:type="inkscape:persp3d" />
    <clipPath
       id="p013ba697daa24e9760c6107becc19328">
      <rect
         x="42.519684"
         y="11.338583"
         width="263.62204"
         height="73.70079"
         id="rect5768" />
    </clipPath>
    <clipPath
       id="clipPath6008">
      <rect
         x="42.519684"
         y="11.338583"
         width="263.62204"
         height="73.70079"
         id="rect6010" />
    </clipPath>
    <clipPath
       id="clipPath6012">
      <rect
         x="42.519684"
         y="11.338583"
         width="263.62204"
         height="73.70079"
         id="rect6014" />
    </clipPath>
    <clipPath
       id="clipPath6016">
      <rect
         x="42.519684"
         y="11.338583"
         width="263.62204"
         height="73.70079"
         id="rect6018" />
    </clipPath>
    <clipPath
       id="clipPath6020">
      <rect
         x="42.519684"
         y="11.338583"
         width="263.62204"
         height="73.70079"
         id="rect6022" />
    </clipPath>
    <clipPath
       id="clipPath6024">
      <rect
         x="42.519684"
         y="11.338583"
         width="263.62204"
         height="73.70079"
         id="rect6026" />
    </clipPath>
    <clipPath
       id="clipPath6028">
      <rect
         x="42.519684"
         y="11.338583"
         width="263.62204"
         height="73.70079"
         id="rect6030" />
    </clipPath>
    <clipPath
       id="clipPath6032">
      <rect
         x="42.519684"
         y="11.338583"
         width="263.62204"
         height="73.70079"
         id="rect6034" />
    </clipPath>
    <clipPath
       id="clipPath6036">
      <rect
         x="42.519684"
         y="11.338583"
         width="263.62204"
         height="73.70079"
         id="rect6038" />
    </clipPath>
    <clipPath
       id="clipPath6040">
      <rect
         x="42.519684"
         y="11.338583"
         width="263.62204"
         height="73.70079"
         id="rect6042" />
    </clipPath>
    <marker
       inkscape:stockid="Arrow2Mend"
       orient="auto"
       refY="0"
       refX="0"
       id="Arrow2Mend-1"
       style="overflow:visible">
      <path
         inkscape:connector-curvature="0"
         id="path5793-5"
         style="font-size:12px;fill-rule:evenodd;stroke-width:0.625;stroke-linejoin:round"
         d="M 8.7185878,4.0337352 -2.2072895,0.01601326 8.7185884,-4.0017078 c -1.7454984,2.3720609 -1.7354408,5.6174519 -6e-7,8.035443 z"
         transform="scale(-0.6,-0.6)" />
    </marker>
    <marker
       inkscape:stockid="Arrow2Mend"
       orient="auto"
       refY="0"
       refX="0"
       id="Arrow2Mend-1-3"
       style="overflow:visible">
      <path
         inkscape:connector-curvature="0"
         id="path5793-5-6"
         style="font-size:12px;fill-rule:evenodd;stroke-width:0.625;stroke-linejoin:round"
         d="M 8.7185878,4.0337352 -2.2072895,0.01601326 8.7185884,-4.0017078 c -1.7454984,2.3720609 -1.7354408,5.6174519 -6e-7,8.035443 z"
         transform="scale(-0.6,-0.6)" />
    </marker>
    <marker
       inkscape:stockid="Arrow2Mend"
       orient="auto"
       refY="0"
       refX="0"
       id="Arrow2Mend-1-5"
       style="overflow:visible">
      <path
         inkscape:connector-curvature="0"
         id="path5793-5-0"
         style="font-size:12px;fill-rule:evenodd;stroke-width:0.625;stroke-linejoin:round"
         d="M 8.7185878,4.0337352 -2.2072895,0.01601326 8.7185884,-4.0017078 c -1.7454984,2.3720609 -1.7354408,5.6174519 -6e-7,8.035443 z"
         transform="scale(-0.6,-0.6)" />
    </marker>
    <marker
       inkscape:stockid="Arrow2Mend"
       orient="auto"
       refY="0"
       refX="0"
       id="Arrow2Mend-1-5-5"
       style="overflow:visible">
      <path
         inkscape:connector-curvature="0"
         id="path5793-5-0-7"
         style="font-size:12px;fill-rule:evenodd;stroke-width:0.625;stroke-linejoin:round"
         d="M 8.7185878,4.0337352 -2.2072895,0.01601326 8.7185884,-4.0017078 c -1.7454984,2.3720609 -1.7354408,5.6174519 -6e-7,8.035443 z"
         transform="scale(-0.6,-0.6)" />
    </marker>
    <marker
       inkscape:stockid="Arrow2Mend"
       orient="auto"
       refY="0"
       refX="0"
       id="Arrow2Mend-1-5-5-5"
       style="overflow:visible">
      <path
         inkscape:connector-curvature="0"
         id="path5793-5-0-7-7"
         style="font-size:12px;fill-rule:evenodd;stroke-width:0.625;stroke-linejoin:round"
         d="M 8.7185878,4.0337352 -2.2072895,0.01601326 8.7185884,-4.0017078 c -1.7454984,2.3720609 -1.7354408,5.6174519 -6e-7,8.035443 z"
         transform="scale(-0.6,-0.6)" />
    </marker>
  </defs>
  <metadata
     id="metadata7">
    <rdf:RDF>
      <cc:Work
         rdf:about="">
        <dc:format>image/svg+xml</dc:format>
        <dc:type
           rdf:resource="http://purl.org/dc/dcmitype/StillImage" />
        <dc:title />
      </cc:Work>
    </rdf:RDF>
  </metadata>
  <g
     transform="translate(-46.6875,-112.177)"
     id="layer1"
     inkscape:groupmode="layer"
     inkscape:label="Calque 1">
    <text
       xml:space="preserve"
       style="font-size:72px;font-style:normal;font-variant:normal;font-weight:normal;font-stretch:normal;line-height:125%;letter-spacing:0px;word-spacing:0px;fill:#000000;fill-opacity:1;stroke:none;font-family:Cabin;-inkscape-font-specification:Cabin"
       x="-145.18169"
       y="1305.9434"
       id="text5171"
       sodipodi:linespacing="125%"
       transform="translate(0,-147.63782)"><tspan
         sodipodi:role="line"
         id="tspan5173"
         x="-145.18169"
         y="1305.9434" /></text>
    <g
       id="g5201">
      <flowRoot
         style="font-size:72px;font-style:normal;font-variant:normal;font-weight:normal;font-stretch:normal;line-height:125%;letter-spacing:0px;word-spacing:0px;fill:#000000;fill-opacity:1;stroke:none;font-family:Cabin;-inkscape-font-specification:Cabin"
         id="flowRoot5193"
         xml:space="preserve"><flowRegion
           id="flowRegion5195"><rect
             y="291.63345"
             x="-1392.9595"
             height="443.39273"
             width="1261.5112"
             id="rect5197" /></flowRegion><flowPara
           id="flowPara5199" /></flowRoot>    </g>
    <flowRoot
       style="font-size:72px;font-style:normal;font-variant:normal;font-weight:normal;font-stretch:normal;line-height:125%;letter-spacing:0px;word-spacing:0px;fill:#000000;fill-opacity:1;stroke:none;font-family:Linux Biolinum O;-inkscape-font-specification:Linux Biolinum O"
       id="flowRoot3326"
       xml:space="preserve"><flowRegion
         id="flowRegion3328"><rect
           y="764.4549"
           x="1826.5426"
           height="449.27847"
           width="56.895527"
           id="rect3330" /></flowRegion><flowPara
         id="flowPara3332" /></flowRoot>    <flowRoot
       style="font-size:72px;font-style:normal;font-variant:normal;font-weight:normal;font-stretch:normal;line-height:125%;letter-spacing:0px;word-spacing:0px;fill:#000000;fill-opacity:1;stroke:none;font-family:Linux Biolinum O;-inkscape-font-specification:Linux Biolinum O"
       id="flowRoot3354"
       xml:space="preserve"><flowRegion
         id="flowRegion3356"><rect
           y="570.22534"
           x="1981.5339"
           height="141.25786"
           width="339.41125"
           id="rect3358" /></flowRegion><flowPara
         id="flowPara3360" /></flowRoot>    <text
       xml:space="preserve"
       style="font-size:72px;font-style:normal;font-variant:normal;font-weight:normal;font-stretch:normal;line-height:125%;letter-spacing:0px;word-spacing:0px;fill:#000000;fill-opacity:1;stroke:none;font-family:Linux Biolinum O;-inkscape-font-specification:Linux Biolinum O"
       x="2203.3411"
       y="579.04138"
       id="text4264"
       sodipodi:linespacing="125%"
       transform="translate(0,-147.63782)"><tspan
         sodipodi:role="line"
         id="tspan4266"
         x="2203.3411"
         y="579.04138" /></text>
    <text
       xml:space="preserve"
       style="font-size:72px;font-style:normal;font-variant:normal;font-weight:normal;font-stretch:normal;line-height:125%;letter-spacing:0px;word-spacing:0px;fill:#000000;fill-opacity:1;stroke:none;font-family:Linux Biolinum O;-inkscape-font-specification:Linux Biolinum O"
       x="2272.2458"
       y="1195.7449"
       id="text6168"
       sodipodi:linespacing="125%"
       transform="translate(0,-147.63782)"><tspan
         sodipodi:role="line"
         id="tspan6170"
         x="2272.2458"
         y="1195.7449" /></text>
    <text
       xml:space="preserve"
       style="font-size:72px;font-style:normal;font-variant:normal;font-weight:normal;font-stretch:normal;line-height:125%;letter-spacing:0px;word-spacing:0px;fill:#000000;fill-opacity:1;stroke:none;font-family:Yanone Kaffeesatz;-inkscape-font-specification:Yanone Kaffeesatz"
       x="3636.8201"
       y="564.789"
       id="text8015"
       sodipodi:linespacing="125%"
       transform="translate(0,-147.63782)"><tspan
         sodipodi:role="line"
         id="tspan8017"
         x="3636.8201"
         y="564.789" /></text>
    <flowRoot
       xml:space="preserve"
       id="flowRoot3256"
       style="font-size:96px;font-style:normal;font-variant:normal;font-weight:normal;font-stretch:normal;line-height:125%;letter-spacing:0px;word-spacing:0px;fill:#000000;fill-opacity:1;stroke:none;font-family:Yanone Kaffeesatz;-inkscape-font-specification:Yanone Kaffeesatz"
       transform="translate(0,-147.63782)"><flowRegion
         id="flowRegion3258"><rect
           id="rect3260"
           width="1334.8912"
           height="178.23831"
           x="2810.0977"
           y="-491.36783" /></flowRegion><flowPara
         id="flowPara3262" /></flowRoot>    <text
       xml:space="preserve"
       style="font-size:96px;font-style:normal;font-variant:normal;font-weight:normal;font-stretch:normal;line-height:125%;letter-spacing:0px;word-spacing:0px;fill:#000000;fill-opacity:1;stroke:none;font-family:Yanone Kaffeesatz;-inkscape-font-specification:Yanone Kaffeesatz"
       x="497.21555"
       y="894.3045"
       id="text5663"
       sodipodi:linespacing="125%"
       transform="translate(0,-147.63782)"><tspan
         sodipodi:role="line"
         id="tspan5665"
         x="497.21555"
         y="894.3045" /></text>
    <text
       xml:space="preserve"
       style="font-size:96px;font-style:normal;font-variant:normal;font-weight:normal;font-stretch:normal;line-height:125%;letter-spacing:0px;word-spacing:0px;fill:#000000;fill-opacity:1;stroke:none;font-family:Linux Biolinum O;-inkscape-font-specification:Linux Biolinum O"
       x="819.48492"
       y="822.4845"
       id="text5726"
       sodipodi:linespacing="125%"
       transform="translate(0,-147.63782)"><tspan
         sodipodi:role="line"
         id="tspan5728"
         x="819.48492"
         y="822.4845" /></text>
    <text
       xml:space="preserve"
       style="font-size:96px;font-style:normal;font-variant:normal;font-weight:normal;font-stretch:normal;line-height:125%;letter-spacing:0px;word-spacing:0px;fill:#000000;fill-opacity:1;stroke:none;font-family:Linux Biolinum O;-inkscape-font-specification:Linux Biolinum O"
       x="-408.87973"
       y="311.92361"
       id="text6186"
       sodipodi:linespacing="125%"
       transform="translate(0,-147.63782)"><tspan
         sodipodi:role="line"
         id="tspan6188"
         x="-408.87973"
         y="311.92361" /></text>
    <text
       xml:space="preserve"
       style="font-size:48px;font-style:normal;font-variant:normal;font-weight:normal;font-stretch:normal;line-height:125%;letter-spacing:0px;word-spacing:0px;fill:#000000;fill-opacity:1;stroke:none;font-family:FastBrush Beta09;-inkscape-font-specification:FastBrush Beta09"
       x="-218.76369"
       y="168.68549"
       id="text3970"
       sodipodi:linespacing="125%"
       transform="translate(0,-147.63782)"><tspan
         sodipodi:role="line"
         id="tspan3972"
         x="-218.76369"
         y="168.68549" /></text>
    <text
       xml:space="preserve"
       style="font-size:48px;font-style:normal;font-variant:normal;font-weight:normal;font-stretch:normal;line-height:125%;letter-spacing:0px;word-spacing:0px;fill:#000000;fill-opacity:1;stroke:none;font-family:FastBrush Beta09;-inkscape-font-specification:FastBrush Beta09"
       x="-992.24957"
       y="580.16956"
       id="text5456"
       sodipodi:linespacing="125%"
       transform="translate(0,-147.63782)"><tspan
         sodipodi:role="line"
         id="tspan5458"
         x="-992.24957"
         y="580.16956" /></text>
    <text
       xml:space="preserve"
       style="font-size:72px;font-style:normal;font-variant:normal;font-weight:normal;font-stretch:normal;line-height:125%;letter-spacing:0px;word-spacing:0px;fill:#000000;fill-opacity:1;stroke:none;font-family:FastBrush Beta09;-inkscape-font-specification:FastBrush Beta09"
       x="365.96994"
       y="-285.25027"
       id="text7508"
       sodipodi:linespacing="125%"
       transform="translate(0,-147.63782)"><tspan
         sodipodi:role="line"
         id="tspan7510"
         x="365.96994"
         y="-285.25027" /></text>
    <text
       xml:space="preserve"
       style="font-size:72px;font-style:normal;font-variant:normal;font-weight:normal;font-stretch:normal;line-height:125%;letter-spacing:0px;word-spacing:0px;fill:#000000;fill-opacity:1;stroke:none;font-family:FastBrush Beta09;-inkscape-font-specification:FastBrush Beta09"
       x="785.36615"
       y="80.719666"
       id="text7769"
       sodipodi:linespacing="125%"
       transform="translate(0,-147.63782)"><tspan
         sodipodi:role="line"
         id="tspan7771"
         x="785.36615"
         y="80.719666" /></text>
    <text
       xml:space="preserve"
       style="font-size:72px;font-style:normal;font-variant:normal;font-weight:normal;font-stretch:normal;line-height:125%;letter-spacing:0px;word-spacing:0px;fill:#000000;fill-opacity:1;stroke:none;font-family:Yanone Kaffeesatz;-inkscape-font-specification:Yanone Kaffeesatz"
       x="-411.46503"
       y="623.5697"
       id="text4647"
       sodipodi:linespacing="125%"
       transform="translate(0,-147.63782)"><tspan
         sodipodi:role="line"
         id="tspan4649"
         x="-411.46503"
         y="623.5697" /></text>
    <text
       xml:space="preserve"
       style="font-size:72px;font-style:normal;font-variant:normal;font-weight:normal;font-stretch:normal;line-height:125%;letter-spacing:0px;word-spacing:0px;fill:#000000;fill-opacity:1;stroke:none;font-family:Yanone Kaffeesatz;-inkscape-font-specification:Yanone Kaffeesatz"
       x="513.85724"
       y="792.32727"
       id="text5442"
       sodipodi:linespacing="125%"
       transform="translate(0,-147.63782)"><tspan
         sodipodi:role="line"
         id="tspan5444"
         x="513.85724"
         y="792.32727" /></text>
    <flowRoot
       xml:space="preserve"
       id="flowRoot6250"
       style="font-size:72px;font-style:normal;font-variant:normal;font-weight:normal;font-stretch:normal;line-height:125%;letter-spacing:0px;word-spacing:0px;fill:#000000;fill-opacity:1;stroke:none;font-family:Yanone Kaffeesatz;-inkscape-font-specification:Yanone Kaffeesatz"
       transform="translate(0,-147.63782)"><flowRegion
         id="flowRegion6252"><rect
           id="rect6254"
           width="155.48448"
           height="96.703766"
           x="627.6264"
           y="348.62762" /></flowRegion><flowPara
         id="flowPara6256" /></flowRoot>    <text
       xml:space="preserve"
       style="font-size:40px;font-style:normal;font-variant:normal;font-weight:normal;font-stretch:normal;line-height:125%;letter-spacing:0px;word-spacing:0px;fill:#000000;fill-opacity:1;stroke:none;font-family:Linux Libertine O C;-inkscape-font-specification:Linux Libertine O C"
       x="676.92633"
       y="593.23126"
       id="text3173"
       sodipodi:linespacing="125%"
       transform="translate(0,-147.63782)"><tspan
         sodipodi:role="line"
         id="tspan3175"
         x="676.92633"
         y="593.23126" /></text>
    <flowRoot
       xml:space="preserve"
       id="flowRoot3251"
       style="font-size:40px;font-style:normal;font-variant:normal;font-weight:normal;font-stretch:normal;line-height:125%;letter-spacing:0px;word-spacing:0px;fill:#000000;fill-opacity:1;stroke:none;font-family:Linux Libertine O C;-inkscape-font-specification:Linux Libertine O C"><flowRegion
         id="flowRegion3253"><rect
           id="rect3255"
           width="66.365326"
           height="237.01903"
           x="551.78033"
           y="477.56598" /></flowRegion><flowPara
         id="flowPara3257" /></flowRoot>    <g
       id="g39833">
      <rect
         y="177.6371"
         x="167.30191"
         height="494.68408"
         width="1153.0592"
         id="rect6377"
         style="fill:#ffffff;fill-opacity:1;stroke:#000000;stroke-width:5;stroke-linecap:butt;stroke-miterlimit:4;stroke-opacity:1;stroke-dasharray:none;stroke-dashoffset:0" />
      <rect
         style="fill:#ffffff;fill-opacity:1;stroke:#000000;stroke-width:5;stroke-linecap:butt;stroke-miterlimit:4;stroke-opacity:1;stroke-dasharray:none;stroke-dashoffset:0"
         id="rect4067"
         width="400"
         height="200"
         x="297.5"
         y="249.86218" />
      <path
         style="fill:none;stroke:#000000;stroke-width:5;stroke-linecap:butt;stroke-linejoin:miter;stroke-miterlimit:4;stroke-opacity:1;stroke-dasharray:none;marker-end:url(#Arrow2Mend-1)"
         d="m 695.68706,495.88766 155.2658,0"
         id="path4929"
         inkscape:connector-curvature="0"
         transform="translate(0,-147.63782)" />
      <rect
         style="fill:#ffffff;fill-opacity:1;stroke:#000000;stroke-width:5;stroke-linecap:butt;stroke-miterlimit:4;stroke-opacity:1;stroke-dasharray:none;stroke-dashoffset:0"
         id="rect4067-6"
         width="400"
         height="200"
         x="854.12842"
         y="249.86218" />
      <path
         sodipodi:nodetypes="cc"
         style="fill:none;stroke:#000000;stroke-width:5;stroke-linecap:butt;stroke-linejoin:miter;stroke-miterlimit:4;stroke-opacity:1;stroke-dasharray:none;marker-end:url(#Arrow2Mend-1)"
         d="m 46.685299,347.09427 244.333001,0"
         id="path4929-9"
         inkscape:connector-curvature="0" />
      <path
         inkscape:transform-center-y="-152.85858"
         inkscape:transform-center-x="36.108325"
         sodipodi:nodetypes="cc"
         style="fill:none;stroke:#000000;stroke-width:5;stroke-linecap:butt;stroke-linejoin:miter;stroke-miterlimit:4;stroke-opacity:1;stroke-dasharray:none;marker-end:url(#Arrow2Mend-1)"
         d="m 1255.1106,349.5015 203.4102,0"
         id="path4929-9-1"
         inkscape:connector-curvature="0" />
      <text
         sodipodi:linespacing="125%"
         id="text6379"
         y="235.49956"
         x="1013.36"
         style="font-size:72px;font-style:normal;font-variant:normal;font-weight:normal;font-stretch:normal;line-height:125%;letter-spacing:0px;word-spacing:0px;fill:#000000;fill-opacity:1;stroke:none;font-family:Linux Biolinum O;-inkscape-font-specification:Linux Biolinum O"
         xml:space="preserve"><tspan
           style="font-style:normal;font-variant:normal;font-weight:normal;font-stretch:normal;font-family:Linux Libertine O C;-inkscape-font-specification:Linux Libertine O C"
           y="235.49956"
           x="1013.36"
           id="tspan6381"
           sodipodi:role="line">stp</tspan></text>
      <text
         sodipodi:linespacing="125%"
         id="text6379-8"
         y="237.29601"
         x="438.70389"
         style="font-size:72px;font-style:normal;font-variant:normal;font-weight:normal;font-stretch:normal;line-height:125%;letter-spacing:0px;word-spacing:0px;fill:#000000;fill-opacity:1;stroke:none;font-family:Linux Biolinum O;-inkscape-font-specification:Linux Biolinum O"
         xml:space="preserve"><tspan
           style="font-style:normal;font-variant:normal;font-weight:normal;font-stretch:normal;font-family:Linux Libertine O C;-inkscape-font-specification:Linux Libertine O C"
           y="237.29601"
           x="438.70389"
           id="tspan6381-9"
           sodipodi:role="line">ltp</tspan></text>
      <g
         id="g6577"
         ns0:preamble="/home/boisgera/DISKS/VOYAGER/ENS/TRAITEMENT_DU_SIGNAL/2011/SLIDES/header.tex"
         ns0:text="$e_n$"
         transform="matrix(7,0,0,7,-1497.2919,-622.2668)">
        <defs
           id="defs6579">
          <g
             id="g6581">
            <symbol
               id="textext-ec199405-0"
               overflow="visible"
               style="overflow:visible">
              <path
                 id="path6584"
                 d="m 1.859375,-2.296875 c 0.296875,0 1.03125,-0.03125 1.53125,-0.234375 0.703125,-0.296875 0.75,-0.890625 0.75,-1.03125 0,-0.4375 -0.375,-0.84375 -1.0625,-0.84375 -1.109375,0 -2.625,0.96875 -2.625,2.71875 0,1.015625 0.59375,1.796875 1.578125,1.796875 1.421875,0 2.25,-1.0625 2.25,-1.171875 0,-0.0625 -0.046875,-0.140625 -0.109375,-0.140625 -0.0625,0 -0.078125,0.03125 -0.140625,0.109375 -0.78125,0.984375 -1.875,0.984375 -1.984375,0.984375 -0.78125,0 -0.875,-0.84375 -0.875,-1.15625 0,-0.125 0.015625,-0.421875 0.15625,-1.03125 z m -0.46875,-0.21875 C 1.78125,-4.03125 2.8125,-4.1875 3.078125,-4.1875 c 0.453125,0 0.734375,0.296875 0.734375,0.625 0,1.046875 -1.59375,1.046875 -2.015625,1.046875 z m 0,0"
                 style="stroke:none"
                 inkscape:connector-curvature="0" />
            </symbol>
            <symbol
               id="textext-ec199405-1"
               overflow="visible"
               style="overflow:visible">
              <path
                 id="path6587"
                 d="m 0.84375,-0.4375 c -0.015625,0.09375 -0.0625,0.265625 -0.0625,0.28125 0,0.15625 0.125,0.21875 0.234375,0.21875 0.125,0 0.234375,-0.078125 0.28125,-0.140625 0.03125,-0.0625 0.078125,-0.296875 0.125,-0.4375 0.03125,-0.125 0.109375,-0.453125 0.140625,-0.625 0.046875,-0.15625 0.09375,-0.3125 0.125,-0.46875 0.078125,-0.28125 0.09375,-0.34375 0.296875,-0.625 C 2.171875,-2.515625 2.5,-2.875 3.03125,-2.875 c 0.390625,0 0.40625,0.359375 0.40625,0.484375 0,0.421875 -0.296875,1.1875 -0.40625,1.484375 -0.078125,0.203125 -0.109375,0.265625 -0.109375,0.375 0,0.375 0.296875,0.59375 0.65625,0.59375 0.703125,0 1,-0.953125 1,-1.0625 0,-0.09375 -0.078125,-0.09375 -0.109375,-0.09375 -0.09375,0 -0.09375,0.046875 -0.125,0.125 C 4.1875,-0.40625 3.875,-0.125 3.609375,-0.125 c -0.15625,0 -0.1875,-0.09375 -0.1875,-0.25 0,-0.15625 0.046875,-0.25 0.171875,-0.5625 0.078125,-0.21875 0.359375,-0.953125 0.359375,-1.34375 0,-0.671875 -0.53125,-0.796875 -0.90625,-0.796875 -0.578125,0 -0.96875,0.359375 -1.171875,0.640625 -0.046875,-0.484375 -0.453125,-0.640625 -0.75,-0.640625 -0.296875,0 -0.453125,0.21875 -0.546875,0.375 -0.15625,0.265625 -0.25,0.65625 -0.25,0.703125 0,0.078125 0.09375,0.078125 0.125,0.078125 0.09375,0 0.09375,-0.015625 0.140625,-0.203125 0.109375,-0.40625 0.25,-0.75 0.515625,-0.75 0.1875,0 0.234375,0.15625 0.234375,0.34375 0,0.125 -0.0625,0.390625 -0.125,0.578125 -0.046875,0.1875 -0.109375,0.46875 -0.140625,0.625 z m 0,0"
                 style="stroke:none"
                 inkscape:connector-curvature="0" />
            </symbol>
          </g>
        </defs>
        <g
           id="textext-ec199405-2">
          <g
             id="g6590"
             style="fill:#000000;fill-opacity:1">
            <use
               id="use6592"
               y="134.765"
               x="223.43201"
               xlink:href="#textext-ec199405-0"
               width="1600"
               height="1200" />
          </g>
          <g
             id="g6594"
             style="fill:#000000;fill-opacity:1">
            <use
               id="use6596"
               y="136.259"
               x="228.071"
               xlink:href="#textext-ec199405-1"
               width="1600"
               height="1200" />
          </g>
        </g>
      </g>
      <g
         ns0:text="$x_n$"
         ns0:preamble="/home/boisgera/DISKS/VOYAGER/ENS/TRAITEMENT_DU_SIGNAL/2011/SLIDES/header.tex"
         transform="matrix(7,0,0,7,-218.53181,-615.22131)"
         id="g7017">
        <defs
           id="defs7019">
          <g
             id="g7021">
            <symbol
               style="overflow:visible"
               overflow="visible"
               id="textext-92272f00-0">
              <path
                 inkscape:connector-curvature="0"
                 style="stroke:none"
                 d="M 3.328125,-3.015625 C 3.390625,-3.265625 3.625,-4.1875 4.3125,-4.1875 c 0.046875,0 0.296875,0 0.5,0.125 C 4.53125,-4 4.34375,-3.765625 4.34375,-3.515625 c 0,0.15625 0.109375,0.34375 0.375,0.34375 0.21875,0 0.53125,-0.171875 0.53125,-0.578125 0,-0.515625 -0.578125,-0.65625 -0.921875,-0.65625 -0.578125,0 -0.921875,0.53125 -1.046875,0.75 -0.25,-0.65625 -0.78125,-0.75 -1.078125,-0.75 -1.03125,0 -1.609375,1.28125 -1.609375,1.53125 0,0.109375 0.109375,0.109375 0.125,0.109375 0.078125,0 0.109375,-0.03125 0.125,-0.109375 0.34375,-1.0625 1,-1.3125 1.34375,-1.3125 0.1875,0 0.53125,0.09375 0.53125,0.671875 0,0.3125 -0.171875,0.96875 -0.53125,2.375 -0.15625,0.609375 -0.515625,1.03125 -0.953125,1.03125 -0.0625,0 -0.28125,0 -0.5,-0.125 0.25,-0.0625 0.46875,-0.265625 0.46875,-0.546875 0,-0.265625 -0.21875,-0.34375 -0.359375,-0.34375 -0.3125,0 -0.546875,0.25 -0.546875,0.578125 0,0.453125 0.484375,0.65625 0.921875,0.65625 0.671875,0 1.03125,-0.703125 1.046875,-0.75 0.125,0.359375 0.484375,0.75 1.078125,0.75 1.03125,0 1.59375,-1.28125 1.59375,-1.53125 0,-0.109375 -0.078125,-0.109375 -0.109375,-0.109375 -0.09375,0 -0.109375,0.046875 -0.140625,0.109375 -0.328125,1.078125 -1,1.3125 -1.3125,1.3125 -0.390625,0 -0.546875,-0.3125 -0.546875,-0.65625 0,-0.21875 0.046875,-0.4375 0.15625,-0.875 z m 0,0"
                 id="path7024" />
            </symbol>
            <symbol
               style="overflow:visible"
               overflow="visible"
               id="textext-92272f00-1">
              <path
                 inkscape:connector-curvature="0"
                 style="stroke:none"
                 d="m 0.84375,-0.4375 c -0.015625,0.09375 -0.0625,0.265625 -0.0625,0.28125 0,0.15625 0.125,0.21875 0.234375,0.21875 0.125,0 0.234375,-0.078125 0.28125,-0.140625 0.03125,-0.0625 0.078125,-0.296875 0.125,-0.4375 0.03125,-0.125 0.109375,-0.453125 0.140625,-0.625 0.046875,-0.15625 0.09375,-0.3125 0.125,-0.46875 0.078125,-0.28125 0.09375,-0.34375 0.296875,-0.625 C 2.171875,-2.515625 2.5,-2.875 3.03125,-2.875 c 0.390625,0 0.40625,0.359375 0.40625,0.484375 0,0.421875 -0.296875,1.1875 -0.40625,1.484375 -0.078125,0.203125 -0.109375,0.265625 -0.109375,0.375 0,0.375 0.296875,0.59375 0.65625,0.59375 0.703125,0 1,-0.953125 1,-1.0625 0,-0.09375 -0.078125,-0.09375 -0.109375,-0.09375 -0.09375,0 -0.09375,0.046875 -0.125,0.125 C 4.1875,-0.40625 3.875,-0.125 3.609375,-0.125 c -0.15625,0 -0.1875,-0.09375 -0.1875,-0.25 0,-0.15625 0.046875,-0.25 0.171875,-0.5625 0.078125,-0.21875 0.359375,-0.953125 0.359375,-1.34375 0,-0.671875 -0.53125,-0.796875 -0.90625,-0.796875 -0.578125,0 -0.96875,0.359375 -1.171875,0.640625 -0.046875,-0.484375 -0.453125,-0.640625 -0.75,-0.640625 -0.296875,0 -0.453125,0.21875 -0.546875,0.375 -0.15625,0.265625 -0.25,0.65625 -0.25,0.703125 0,0.078125 0.09375,0.078125 0.125,0.078125 0.09375,0 0.09375,-0.015625 0.140625,-0.203125 0.109375,-0.40625 0.25,-0.75 0.515625,-0.75 0.1875,0 0.234375,0.15625 0.234375,0.34375 0,0.125 -0.0625,0.390625 -0.125,0.578125 -0.046875,0.1875 -0.109375,0.46875 -0.140625,0.625 z m 0,0"
                 id="path7027" />
            </symbol>
          </g>
        </defs>
        <g
           id="textext-92272f00-2">
          <g
             style="fill:#000000;fill-opacity:1"
             id="g7030">
            <use
               height="1200"
               width="1600"
               xlink:href="#textext-92272f00-0"
               x="223.43201"
               y="134.765"
               id="use7032" />
          </g>
          <g
             style="fill:#000000;fill-opacity:1"
             id="g7034">
            <use
               height="1200"
               width="1600"
               xlink:href="#textext-92272f00-1"
               x="229.12601"
               y="136.259"
               id="use7036" />
          </g>
        </g>
      </g>
      <g
         id="g7481"
         transform="matrix(7,0,0,7,-769.32047,-208.40086)"
         ns0:preamble="/home/boisgera/DISKS/VOYAGER/ENS/TRAITEMENT_DU_SIGNAL/2011/SLIDES/header.tex"
         ns0:text="$p$">
        <defs
           id="defs7483">
          <g
             id="g7485">
            <symbol
               id="textext-b2442def-0"
               overflow="visible"
               style="overflow:visible">
              <path
                 id="path7488"
                 d="M 0.453125,1.21875 C 0.375,1.5625 0.34375,1.625 -0.09375,1.625 c -0.109375,0 -0.21875,0 -0.21875,0.1875 0,0.078125 0.046875,0.125 0.125,0.125 0.265625,0 0.5625,-0.03125 0.828125,-0.03125 0.34375,0 0.671875,0.03125 1,0.03125 0.046875,0 0.171875,0 0.171875,-0.203125 C 1.8125,1.625 1.71875,1.625 1.578125,1.625 c -0.5,0 -0.5,-0.0625 -0.5,-0.15625 0,-0.125 0.421875,-1.75 0.484375,-2 0.125,0.296875 0.40625,0.640625 0.921875,0.640625 1.15625,0 2.40625,-1.453125 2.40625,-2.921875 0,-0.9375 -0.578125,-1.59375 -1.328125,-1.59375 -0.5,0 -0.984375,0.359375 -1.3125,0.75 -0.09375,-0.546875 -0.53125,-0.75 -0.890625,-0.75 -0.46875,0 -0.65625,0.390625 -0.734375,0.5625 C 0.4375,-3.5 0.3125,-2.90625 0.3125,-2.875 c 0,0.109375 0.09375,0.109375 0.109375,0.109375 0.109375,0 0.109375,-0.015625 0.171875,-0.234375 0.171875,-0.703125 0.375,-1.1875 0.734375,-1.1875 0.171875,0 0.3125,0.078125 0.3125,0.453125 0,0.234375 -0.03125,0.34375 -0.078125,0.515625 z m 1.75,-4.328125 C 2.265625,-3.375 2.546875,-3.65625 2.71875,-3.8125 c 0.359375,-0.296875 0.640625,-0.375 0.8125,-0.375 0.390625,0 0.640625,0.34375 0.640625,0.9375 0,0.59375 -0.328125,1.734375 -0.515625,2.109375 -0.34375,0.703125 -0.8125,1.03125 -1.1875,1.03125 C 1.8125,-0.109375 1.6875,-0.9375 1.6875,-1 c 0,-0.015625 0,-0.03125 0.03125,-0.15625 z m 0,0"
                 style="stroke:none"
                 inkscape:connector-curvature="0" />
            </symbol>
          </g>
        </defs>
        <g
           id="textext-b2442def-1">
          <g
             id="g7491"
             style="fill:#000000;fill-opacity:1">
            <use
               id="use7493"
               y="134.765"
               x="223.43201"
               xlink:href="#textext-b2442def-0"
               width="1600"
               height="1200" />
          </g>
        </g>
      </g>
      <g
         id="g8393"
         transform="matrix(7,0,0,7,-1709.9238,-601.00904)"
         ns0:preamble="/home/boisgera/DISKS/VOYAGER/ENS/TRAITEMENT_DU_SIGNAL/2011/SLIDES/header.tex"
         ns0:text="$$\\frac{1}{1-A(z)}$$">
        <defs
           id="defs8395">
          <g
             id="g8397">
            <symbol
               id="textext-fe5fdaee-0"
               overflow="visible"
               style="overflow:visible">
              <path
                 id="path8400"
                 d="m 2.9375,-6.375 c 0,-0.25 0,-0.265625 -0.234375,-0.265625 C 2.078125,-6 1.203125,-6 0.890625,-6 l 0,0.3125 c 0.203125,0 0.78125,0 1.296875,-0.265625 l 0,5.171875 c 0,0.359375 -0.03125,0.46875 -0.921875,0.46875 l -0.3125,0 0,0.3125 c 0.34375,-0.03125 1.203125,-0.03125 1.609375,-0.03125 0.390625,0 1.265625,0 1.609375,0.03125 l 0,-0.3125 -0.3125,0 c -0.90625,0 -0.921875,-0.109375 -0.921875,-0.46875 z m 0,0"
                 style="stroke:none"
                 inkscape:connector-curvature="0" />
            </symbol>
            <symbol
               id="textext-fe5fdaee-1"
               overflow="visible"
               style="overflow:visible">
              <path
                 id="path8403"
                 d="m 3.296875,2.390625 c 0,-0.03125 0,-0.046875 -0.171875,-0.21875 C 1.890625,0.921875 1.5625,-0.96875 1.5625,-2.5 c 0,-1.734375 0.375,-3.46875 1.609375,-4.703125 0.125,-0.125 0.125,-0.140625 0.125,-0.171875 0,-0.078125 -0.03125,-0.109375 -0.09375,-0.109375 -0.109375,0 -1,0.6875 -1.59375,1.953125 -0.5,1.09375 -0.625,2.203125 -0.625,3.03125 0,0.78125 0.109375,1.984375 0.65625,3.125 C 2.25,1.84375 3.09375,2.5 3.203125,2.5 c 0.0625,0 0.09375,-0.03125 0.09375,-0.109375 z m 0,0"
                 style="stroke:none"
                 inkscape:connector-curvature="0" />
            </symbol>
            <symbol
               id="textext-fe5fdaee-2"
               overflow="visible"
               style="overflow:visible">
              <path
                 id="path8406"
                 d="m 2.875,-2.5 c 0,-0.765625 -0.109375,-1.96875 -0.65625,-3.109375 -0.59375,-1.21875 -1.453125,-1.875 -1.546875,-1.875 -0.0625,0 -0.109375,0.046875 -0.109375,0.109375 0,0.03125 0,0.046875 0.1875,0.234375 0.984375,0.984375 1.546875,2.5625 1.546875,4.640625 0,1.71875 -0.359375,3.46875 -1.59375,4.71875 C 0.5625,2.34375 0.5625,2.359375 0.5625,2.390625 0.5625,2.453125 0.609375,2.5 0.671875,2.5 0.765625,2.5 1.671875,1.8125 2.25,0.546875 2.765625,-0.546875 2.875,-1.65625 2.875,-2.5 z m 0,0"
                 style="stroke:none"
                 inkscape:connector-curvature="0" />
            </symbol>
            <symbol
               id="textext-fe5fdaee-3"
               overflow="visible"
               style="overflow:visible">
              <path
                 id="path8409"
                 d="m 6.5625,-2.296875 c 0.171875,0 0.359375,0 0.359375,-0.203125 0,-0.1875 -0.1875,-0.1875 -0.359375,-0.1875 l -5.390625,0 c -0.171875,0 -0.34375,0 -0.34375,0.1875 0,0.203125 0.171875,0.203125 0.34375,0.203125 z m 0,0"
                 style="stroke:none"
                 inkscape:connector-curvature="0" />
            </symbol>
            <symbol
               id="textext-fe5fdaee-4"
               overflow="visible"
               style="overflow:visible">
              <path
                 id="path8412"
                 d="M 1.78125,-1.140625 C 1.390625,-0.484375 1,-0.34375 0.5625,-0.3125 0.4375,-0.296875 0.34375,-0.296875 0.34375,-0.109375 0.34375,-0.046875 0.40625,0 0.484375,0 0.75,0 1.0625,-0.03125 1.328125,-0.03125 c 0.34375,0 0.6875,0.03125 1,0.03125 0.0625,0 0.1875,0 0.1875,-0.1875 0,-0.109375 -0.078125,-0.125 -0.15625,-0.125 -0.21875,-0.015625 -0.46875,-0.09375 -0.46875,-0.34375 0,-0.125 0.0625,-0.234375 0.140625,-0.375 l 0.765625,-1.265625 2.5,0 c 0.015625,0.203125 0.15625,1.5625 0.15625,1.65625 0,0.296875 -0.515625,0.328125 -0.71875,0.328125 C 4.59375,-0.3125 4.5,-0.3125 4.5,-0.109375 4.5,0 4.609375,0 4.640625,0 5.046875,0 5.46875,-0.03125 5.875,-0.03125 6.125,-0.03125 6.765625,0 7.015625,0 7.0625,0 7.1875,0 7.1875,-0.203125 7.1875,-0.3125 7.09375,-0.3125 6.953125,-0.3125 6.34375,-0.3125 6.34375,-0.375 6.3125,-0.671875 l -0.609375,-6.21875 c -0.015625,-0.203125 -0.015625,-0.25 -0.1875,-0.25 -0.15625,0 -0.203125,0.078125 -0.265625,0.171875 z M 2.984375,-2.609375 4.9375,-5.90625 5.265625,-2.609375 z m 0,0"
                 style="stroke:none"
                 inkscape:connector-curvature="0" />
            </symbol>
            <symbol
               id="textext-fe5fdaee-5"
               overflow="visible"
               style="overflow:visible">
              <path
                 id="path8415"
                 d="m 1.328125,-0.828125 c 0.53125,-0.578125 0.828125,-0.828125 1.1875,-1.140625 0,0 0.609375,-0.53125 0.96875,-0.890625 C 4.4375,-3.78125 4.65625,-4.265625 4.65625,-4.3125 c 0,-0.09375 -0.09375,-0.09375 -0.109375,-0.09375 -0.078125,0 -0.09375,0.015625 -0.15625,0.109375 -0.296875,0.484375 -0.5,0.640625 -0.734375,0.640625 -0.25,0 -0.359375,-0.15625 -0.515625,-0.328125 -0.1875,-0.21875 -0.359375,-0.421875 -0.6875,-0.421875 -0.75,0 -1.203125,0.921875 -1.203125,1.140625 0,0.046875 0.03125,0.109375 0.109375,0.109375 0.09375,0 0.109375,-0.046875 0.140625,-0.109375 0.1875,-0.46875 0.765625,-0.46875 0.84375,-0.46875 0.203125,0 0.390625,0.0625 0.625,0.140625 0.40625,0.15625 0.515625,0.15625 0.765625,0.15625 -0.359375,0.421875 -1.1875,1.140625 -1.375,1.296875 l -0.90625,0.84375 C 0.78125,-0.625 0.421875,-0.0625 0.421875,0.015625 c 0,0.09375 0.109375,0.09375 0.125,0.09375 0.078125,0 0.09375,-0.015625 0.15625,-0.125 0.234375,-0.359375 0.53125,-0.625 0.859375,-0.625 0.21875,0 0.328125,0.09375 0.578125,0.375 0.15625,0.21875 0.34375,0.375 0.625,0.375 1,0 1.578125,-1.265625 1.578125,-1.53125 0,-0.046875 -0.046875,-0.109375 -0.125,-0.109375 -0.09375,0 -0.109375,0.0625 -0.140625,0.140625 C 3.84375,-0.75 3.203125,-0.5625 2.875,-0.5625 c -0.1875,0 -0.375,-0.0625 -0.578125,-0.125 -0.34375,-0.125 -0.5,-0.171875 -0.703125,-0.171875 -0.015625,0 -0.171875,0 -0.265625,0.03125 z m 0,0"
                 style="stroke:none"
                 inkscape:connector-curvature="0" />
            </symbol>
          </g>
        </defs>
        <g
           id="textext-fe5fdaee-6">
          <g
             id="g8418"
             style="fill:#000000;fill-opacity:1">
            <use
               id="use8420"
               y="131.222"
               x="392.797"
               xlink:href="#textext-fe5fdaee-0"
               width="1600"
               height="1200" />
          </g>
          <path
             id="path8422"
             transform="matrix(1,0,0,-1,376.563,135.471)"
             d="m -5e-4,-0.00165625 37.449219,0"
             style="fill:none;stroke:#000000;stroke-width:0.398;stroke-linecap:butt;stroke-linejoin:miter;stroke-miterlimit:10;stroke-opacity:1"
             inkscape:connector-curvature="0" />
          <g
             id="g8424"
             style="fill:#000000;fill-opacity:1">
            <use
               id="use8426"
               y="144.79601"
               x="376.56299"
               xlink:href="#textext-fe5fdaee-0"
               width="1600"
               height="1200" />
          </g>
          <g
             id="g8428"
             style="fill:#000000;fill-opacity:1">
            <use
               id="use8430"
               y="144.79601"
               x="383.758"
               xlink:href="#textext-fe5fdaee-3"
               width="1600"
               height="1200" />
          </g>
          <g
             id="g8432"
             style="fill:#000000;fill-opacity:1">
            <use
               id="use8434"
               y="144.79601"
               x="393.72101"
               xlink:href="#textext-fe5fdaee-4"
               width="1600"
               height="1200" />
          </g>
          <g
             id="g8436"
             style="fill:#000000;fill-opacity:1">
            <use
               id="use8438"
               y="144.79601"
               x="401.19299"
               xlink:href="#textext-fe5fdaee-1"
               width="1600"
               height="1200" />
          </g>
          <g
             id="g8440"
             style="fill:#000000;fill-opacity:1">
            <use
               id="use8442"
               y="144.79601"
               x="405.06699"
               xlink:href="#textext-fe5fdaee-5"
               width="1600"
               height="1200" />
          </g>
          <g
             id="g8444"
             style="fill:#000000;fill-opacity:1">
            <use
               id="use8446"
               y="144.79601"
               x="410.138"
               xlink:href="#textext-fe5fdaee-2"
               width="1600"
               height="1200" />
          </g>
        </g>
      </g>
      <g
         ns0:text="$$\\frac{1}{1-B(z)}$$"
         ns0:preamble="/home/boisgera/DISKS/VOYAGER/ENS/TRAITEMENT_DU_SIGNAL/2011/SLIDES/header.tex"
         transform="matrix(7,0,0,7,-2269.131,-602.12123)"
         id="g8887">
        <defs
           id="defs8889">
          <g
             id="g8891">
            <symbol
               style="overflow:visible"
               overflow="visible"
               id="textext-dd016d8e-0">
              <path
                 inkscape:connector-curvature="0"
                 style="stroke:none"
                 d="m 2.9375,-6.375 c 0,-0.25 0,-0.265625 -0.234375,-0.265625 C 2.078125,-6 1.203125,-6 0.890625,-6 l 0,0.3125 c 0.203125,0 0.78125,0 1.296875,-0.265625 l 0,5.171875 c 0,0.359375 -0.03125,0.46875 -0.921875,0.46875 l -0.3125,0 0,0.3125 c 0.34375,-0.03125 1.203125,-0.03125 1.609375,-0.03125 0.390625,0 1.265625,0 1.609375,0.03125 l 0,-0.3125 -0.3125,0 c -0.90625,0 -0.921875,-0.109375 -0.921875,-0.46875 z m 0,0"
                 id="path8894" />
            </symbol>
            <symbol
               style="overflow:visible"
               overflow="visible"
               id="textext-dd016d8e-1">
              <path
                 inkscape:connector-curvature="0"
                 style="stroke:none"
                 d="m 3.296875,2.390625 c 0,-0.03125 0,-0.046875 -0.171875,-0.21875 C 1.890625,0.921875 1.5625,-0.96875 1.5625,-2.5 c 0,-1.734375 0.375,-3.46875 1.609375,-4.703125 0.125,-0.125 0.125,-0.140625 0.125,-0.171875 0,-0.078125 -0.03125,-0.109375 -0.09375,-0.109375 -0.109375,0 -1,0.6875 -1.59375,1.953125 -0.5,1.09375 -0.625,2.203125 -0.625,3.03125 0,0.78125 0.109375,1.984375 0.65625,3.125 C 2.25,1.84375 3.09375,2.5 3.203125,2.5 c 0.0625,0 0.09375,-0.03125 0.09375,-0.109375 z m 0,0"
                 id="path8897" />
            </symbol>
            <symbol
               style="overflow:visible"
               overflow="visible"
               id="textext-dd016d8e-2">
              <path
                 inkscape:connector-curvature="0"
                 style="stroke:none"
                 d="m 2.875,-2.5 c 0,-0.765625 -0.109375,-1.96875 -0.65625,-3.109375 -0.59375,-1.21875 -1.453125,-1.875 -1.546875,-1.875 -0.0625,0 -0.109375,0.046875 -0.109375,0.109375 0,0.03125 0,0.046875 0.1875,0.234375 0.984375,0.984375 1.546875,2.5625 1.546875,4.640625 0,1.71875 -0.359375,3.46875 -1.59375,4.71875 C 0.5625,2.34375 0.5625,2.359375 0.5625,2.390625 0.5625,2.453125 0.609375,2.5 0.671875,2.5 0.765625,2.5 1.671875,1.8125 2.25,0.546875 2.765625,-0.546875 2.875,-1.65625 2.875,-2.5 z m 0,0"
                 id="path8900" />
            </symbol>
            <symbol
               style="overflow:visible"
               overflow="visible"
               id="textext-dd016d8e-3">
              <path
                 inkscape:connector-curvature="0"
                 style="stroke:none"
                 d="m 6.5625,-2.296875 c 0.171875,0 0.359375,0 0.359375,-0.203125 0,-0.1875 -0.1875,-0.1875 -0.359375,-0.1875 l -5.390625,0 c -0.171875,0 -0.34375,0 -0.34375,0.1875 0,0.203125 0.171875,0.203125 0.34375,0.203125 z m 0,0"
                 id="path8903" />
            </symbol>
            <symbol
               style="overflow:visible"
               overflow="visible"
               id="textext-dd016d8e-4">
              <path
                 inkscape:connector-curvature="0"
                 style="stroke:none"
                 d="M 1.59375,-0.78125 C 1.5,-0.390625 1.46875,-0.3125 0.6875,-0.3125 c -0.171875,0 -0.265625,0 -0.265625,0.203125 C 0.421875,0 0.515625,0 0.6875,0 L 4.25,0 C 5.828125,0 7,-1.171875 7,-2.15625 7,-2.875 6.421875,-3.453125 5.453125,-3.5625 6.484375,-3.75 7.53125,-4.484375 7.53125,-5.4375 c 0,-0.734375 -0.65625,-1.375 -1.84375,-1.375 l -3.359375,0 c -0.1875,0 -0.28125,0 -0.28125,0.203125 0,0.109375 0.09375,0.109375 0.28125,0.109375 0.015625,0 0.203125,0 0.375,0.015625 0.171875,0.03125 0.265625,0.03125 0.265625,0.171875 0,0.03125 -0.015625,0.0625 -0.03125,0.1875 z m 1.5,-2.875 0.625,-2.46875 C 3.8125,-6.46875 3.828125,-6.5 4.25,-6.5 l 1.296875,0 c 0.875,0 1.078125,0.59375 1.078125,1.03125 0,0.875 -0.859375,1.8125 -2.0625,1.8125 z m -0.4375,3.34375 c -0.140625,0 -0.15625,0 -0.21875,0 -0.109375,-0.015625 -0.140625,-0.03125 -0.140625,-0.109375 0,-0.03125 0,-0.046875 0.0625,-0.21875 l 0.6875,-2.78125 1.875,0 c 0.953125,0 1.15625,0.734375 1.15625,1.15625 C 6.078125,-1.28125 5.1875,-0.3125 4,-0.3125 z m 0,0"
                 id="path8906" />
            </symbol>
            <symbol
               style="overflow:visible"
               overflow="visible"
               id="textext-dd016d8e-5">
              <path
                 inkscape:connector-curvature="0"
                 style="stroke:none"
                 d="m 1.328125,-0.828125 c 0.53125,-0.578125 0.828125,-0.828125 1.1875,-1.140625 0,0 0.609375,-0.53125 0.96875,-0.890625 C 4.4375,-3.78125 4.65625,-4.265625 4.65625,-4.3125 c 0,-0.09375 -0.09375,-0.09375 -0.109375,-0.09375 -0.078125,0 -0.09375,0.015625 -0.15625,0.109375 -0.296875,0.484375 -0.5,0.640625 -0.734375,0.640625 -0.25,0 -0.359375,-0.15625 -0.515625,-0.328125 -0.1875,-0.21875 -0.359375,-0.421875 -0.6875,-0.421875 -0.75,0 -1.203125,0.921875 -1.203125,1.140625 0,0.046875 0.03125,0.109375 0.109375,0.109375 0.09375,0 0.109375,-0.046875 0.140625,-0.109375 0.1875,-0.46875 0.765625,-0.46875 0.84375,-0.46875 0.203125,0 0.390625,0.0625 0.625,0.140625 0.40625,0.15625 0.515625,0.15625 0.765625,0.15625 -0.359375,0.421875 -1.1875,1.140625 -1.375,1.296875 l -0.90625,0.84375 C 0.78125,-0.625 0.421875,-0.0625 0.421875,0.015625 c 0,0.09375 0.109375,0.09375 0.125,0.09375 0.078125,0 0.09375,-0.015625 0.15625,-0.125 0.234375,-0.359375 0.53125,-0.625 0.859375,-0.625 0.21875,0 0.328125,0.09375 0.578125,0.375 0.15625,0.21875 0.34375,0.375 0.625,0.375 1,0 1.578125,-1.265625 1.578125,-1.53125 0,-0.046875 -0.046875,-0.109375 -0.125,-0.109375 -0.09375,0 -0.109375,0.0625 -0.140625,0.140625 C 3.84375,-0.75 3.203125,-0.5625 2.875,-0.5625 c -0.1875,0 -0.375,-0.0625 -0.578125,-0.125 -0.34375,-0.125 -0.5,-0.171875 -0.703125,-0.171875 -0.015625,0 -0.171875,0 -0.265625,0.03125 z m 0,0"
                 id="path8909" />
            </symbol>
          </g>
        </defs>
        <g
           id="textext-dd016d8e-6">
          <g
             style="fill:#000000;fill-opacity:1"
             id="g8912">
            <use
               height="1200"
               width="1600"
               xlink:href="#textext-dd016d8e-0"
               x="392.797"
               y="131.222"
               id="use8914" />
          </g>
          <path
             inkscape:connector-curvature="0"
             style="fill:none;stroke:#000000;stroke-width:0.398;stroke-linecap:butt;stroke-linejoin:miter;stroke-miterlimit:10;stroke-opacity:1"
             d="m -4.6875e-4,-0.00165625 38.03515675,0"
             transform="matrix(1,0,0,-1,376.27,135.471)"
             id="path8916" />
          <g
             style="fill:#000000;fill-opacity:1"
             id="g8918">
            <use
               height="1200"
               width="1600"
               xlink:href="#textext-dd016d8e-0"
               x="376.26999"
               y="144.79601"
               id="use8920" />
          </g>
          <g
             style="fill:#000000;fill-opacity:1"
             id="g8922">
            <use
               height="1200"
               width="1600"
               xlink:href="#textext-dd016d8e-3"
               x="383.466"
               y="144.79601"
               id="use8924" />
          </g>
          <g
             style="fill:#000000;fill-opacity:1"
             id="g8926">
            <use
               height="1200"
               width="1600"
               xlink:href="#textext-dd016d8e-4"
               x="393.42801"
               y="144.79601"
               id="use8928" />
          </g>
          <g
             style="fill:#000000;fill-opacity:1"
             id="g8930">
            <use
               height="1200"
               width="1600"
               xlink:href="#textext-dd016d8e-1"
               x="401.48499"
               y="144.79601"
               id="use8932" />
          </g>
          <g
             style="fill:#000000;fill-opacity:1"
             id="g8934">
            <use
               height="1200"
               width="1600"
               xlink:href="#textext-dd016d8e-5"
               x="405.35901"
               y="144.79601"
               id="use8936" />
          </g>
          <g
             style="fill:#000000;fill-opacity:1"
             id="g8938">
            <use
               height="1200"
               width="1600"
               xlink:href="#textext-dd016d8e-2"
               x="410.431"
               y="144.79601"
               id="use8940" />
          </g>
        </g>
      </g>
      <path
         sodipodi:nodetypes="cccc"
         transform="translate(0,-147.63782)"
         inkscape:connector-curvature="0"
         id="path9147"
         d="m 770.31093,936.40923 0,-252.77633 -284.05215,0 0,-83.03109"
         style="fill:none;stroke:#000000;stroke-width:5;stroke-linecap:butt;stroke-linejoin:miter;stroke-miterlimit:4;stroke-opacity:1;stroke-dasharray:none;marker-end:url(#Arrow2Mend-1-5-5)" />
      <path
         sodipodi:nodetypes="cccc"
         inkscape:connector-curvature="0"
         id="path9147-3"
         d="m 770.628,788.72318 0,-252.77633 284.0521,0 0,-83.03109"
         style="fill:none;stroke:#000000;stroke-width:5;stroke-linecap:butt;stroke-linejoin:miter;stroke-miterlimit:4;stroke-opacity:1;stroke-dasharray:none;marker-end:url(#Arrow2Mend-1-5-5)" />
      <text
         sodipodi:linespacing="125%"
         id="text9382"
         y="162.45044"
         x="162.08023"
         style="font-size:72px;font-style:normal;font-variant:normal;font-weight:normal;font-stretch:normal;line-height:125%;letter-spacing:0px;word-spacing:0px;fill:#000000;fill-opacity:1;stroke:none;font-family:Linux Biolinum O;-inkscape-font-specification:Linux Biolinum O"
         xml:space="preserve"><tspan
           y="162.45044"
           x="162.08023"
           id="tspan9384"
           sodipodi:role="line">Synthesis Filter</tspan></text>
    </g>
  </g>
</svg>
